%YAML 1.1
%TAG !u! tag:unity3d.com,2011:
--- !u!114 &11400000
MonoBehaviour:
  m_ObjectHideFlags: 0
  m_CorrespondingSourceObject: {fileID: 0}
  m_PrefabInstance: {fileID: 0}
  m_PrefabAsset: {fileID: 0}
  m_GameObject: {fileID: 0}
  m_Enabled: 1
  m_EditorHideFlags: 0
  m_Script: {fileID: 11500000, guid: 3487f6b2930e55c45938860b8e556a55, type: 3}
  m_Name: YellowCard
  m_EditorClassIdentifier: 
  name: YellowCard
  icon: {fileID: 21300000, guid: c4afb595da11be149b88ca1dae75cdb4, type: 3}
  _cardType: 1
